{
    "fields": [
        {
            "name": "articulo",
            "type": "string"
        },
        {
            "name": "cantidad",
            "type": "integer"
        },
        {
            "name": "id_paquete",
            "type": "integer"
        }
    ],
    "foreign_keys": [
        {
            "column": "id_paquete",
            "references": "id",
            "on": "paquetes",
            "onDelete": "cascade"
        }
      ],
    "relationships": [
      {
          "name": "paquetes",
          "type": "belongsTo",
          "class": "App\\Paquetes"
      }
    ],
    "validations": [
        {
            "field": "id_paquete",
            "rules": "required"
        },
        {
            "field": "articulo",
            "rules": "required"
        },
        {
            "field": "cantidad",
            "rules": "required"
        }
    ]
}
